%YAML 1.1
%TAG !u! tag:unity3d.com,2011:
--- !u!1 &1599811143320890920
GameObject:
  m_ObjectHideFlags: 0
  m_CorrespondingSourceObject: {fileID: 0}
  m_PrefabInstance: {fileID: 0}
  m_PrefabAsset: {fileID: 0}
  serializedVersion: 6
  m_Component:
  - component: {fileID: 2123582939431842962}
  - component: {fileID: 8590469657466847571}
  m_Layer: 0
  m_Name: ZoneBorderExteriorMidWindow
  m_TagString: Untagged
  m_Icon: {fileID: 0}
  m_NavMeshLayer: 0
  m_StaticEditorFlags: 4294967295
  m_IsActive: 1
--- !u!4 &2123582939431842962
Transform:
  m_ObjectHideFlags: 0
  m_CorrespondingSourceObject: {fileID: 0}
  m_PrefabInstance: {fileID: 0}
  m_PrefabAsset: {fileID: 0}
  m_GameObject: {fileID: 1599811143320890920}
  m_LocalRotation: {x: 0, y: 0, z: 0, w: 1}
  m_LocalPosition: {x: 0, y: 0, z: 0}
  m_LocalScale: {x: 1, y: 1, z: 1}
  m_Children:
  - {fileID: 327919579624269871}
  m_Father: {fileID: 0}
  m_RootOrder: 0
  m_LocalEulerAnglesHint: {x: 0, y: 0, z: 0}
--- !u!114 &8590469657466847571
MonoBehaviour:
  m_ObjectHideFlags: 0
  m_CorrespondingSourceObject: {fileID: 0}
  m_PrefabInstance: {fileID: 0}
  m_PrefabAsset: {fileID: 0}
  m_GameObject: {fileID: 1599811143320890920}
  m_Enabled: 1
  m_EditorHideFlags: 0
  m_Script: {fileID: 11500000, guid: d1793f85caa36874fbc6af02fffa4484, type: 3}
  m_Name: 
  m_EditorClassIdentifier: 
  itemSpawnPoints: []
--- !u!1001 &218345845326286788
PrefabInstance:
  m_ObjectHideFlags: 0
  serializedVersion: 2
  m_Modification:
    m_TransformParent: {fileID: 2123582939431842962}
    m_Modifications:
    - target: {fileID: -8679921383154817045, guid: 45bbe9816ab9ee245adef610b29a915a, type: 3}
      propertyPath: m_RootOrder
      value: 0
      objectReference: {fileID: 0}
    - target: {fileID: -8679921383154817045, guid: 45bbe9816ab9ee245adef610b29a915a, type: 3}
      propertyPath: m_LocalScale.y
      value: 1.25
      objectReference: {fileID: 0}
    - target: {fileID: -8679921383154817045, guid: 45bbe9816ab9ee245adef610b29a915a, type: 3}
      propertyPath: m_LocalPosition.x
      value: 0
      objectReference: {fileID: 0}
    - target: {fileID: -8679921383154817045, guid: 45bbe9816ab9ee245adef610b29a915a, type: 3}
      propertyPath: m_LocalPosition.y
      value: 0
      objectReference: {fileID: 0}
    - target: {fileID: -8679921383154817045, guid: 45bbe9816ab9ee245adef610b29a915a, type: 3}
      propertyPath: m_LocalPosition.z
      value: 0.25
      objectReference: {fileID: 0}
    - target: {fileID: -8679921383154817045, guid: 45bbe9816ab9ee245adef610b29a915a, type: 3}
      propertyPath: m_LocalRotation.w
      value: 0.7071068
      objectReference: {fileID: 0}
    - target: {fileID: -8679921383154817045, guid: 45bbe9816ab9ee245adef610b29a915a, type: 3}
      propertyPath: m_LocalRotation.x
      value: 0
      objectReference: {fileID: 0}
    - target: {fileID: -8679921383154817045, guid: 45bbe9816ab9ee245adef610b29a915a, type: 3}
      propertyPath: m_LocalRotation.y
      value: 0.7071068
      objectReference: {fileID: 0}
    - target: {fileID: -8679921383154817045, guid: 45bbe9816ab9ee245adef610b29a915a, type: 3}
      propertyPath: m_LocalRotation.z
      value: 0
      objectReference: {fileID: 0}
    - target: {fileID: -8679921383154817045, guid: 45bbe9816ab9ee245adef610b29a915a, type: 3}
      propertyPath: m_LocalEulerAnglesHint.x
      value: 0
      objectReference: {fileID: 0}
    - target: {fileID: -8679921383154817045, guid: 45bbe9816ab9ee245adef610b29a915a, type: 3}
      propertyPath: m_LocalEulerAnglesHint.y
      value: 90
      objectReference: {fileID: 0}
    - target: {fileID: -8679921383154817045, guid: 45bbe9816ab9ee245adef610b29a915a, type: 3}
      propertyPath: m_LocalEulerAnglesHint.z
      value: 0
      objectReference: {fileID: 0}
    - target: {fileID: 919132149155446097, guid: 45bbe9816ab9ee245adef610b29a915a, type: 3}
      propertyPath: m_Name
      value: SpaceWall1
      objectReference: {fileID: 0}
    - target: {fileID: 919132149155446097, guid: 45bbe9816ab9ee245adef610b29a915a, type: 3}
      propertyPath: m_StaticEditorFlags
      value: 4294967295
      objectReference: {fileID: 0}
    m_RemovedComponents: []
  m_SourcePrefab: {fileID: 100100000, guid: 45bbe9816ab9ee245adef610b29a915a, type: 3}
--- !u!4 &327919579624269871 stripped
Transform:
  m_CorrespondingSourceObject: {fileID: -8679921383154817045, guid: 45bbe9816ab9ee245adef610b29a915a, type: 3}
  m_PrefabInstance: {fileID: 218345845326286788}
  m_PrefabAsset: {fileID: 0}
