%YAML 1.1
%TAG !u! tag:unity3d.com,2011:
--- !u!114 &11400000
MonoBehaviour:
  m_ObjectHideFlags: 0
  m_CorrespondingSourceObject: {fileID: 0}
  m_PrefabInstance: {fileID: 0}
  m_PrefabAsset: {fileID: 0}
  m_GameObject: {fileID: 0}
  m_Enabled: 1
  m_EditorHideFlags: 0
  m_Script: {fileID: 11500000, guid: 752a6d7e499282243b722f024ac7941f, type: 3}
  m_Name: DefaultRowSettings
  m_EditorClassIdentifier: 
  rowSegments:
  - zones:
    - {fileID: 11400000, guid: a60cb768b9bc65d40948d0cec932fa79, type: 2}
    - {fileID: 11400000, guid: 61eb6bf7639236e4a8e99d7f8303a838, type: 2}
    minZoneCount: 1
    maxZoneCount: 3
  randomizeSegmentOrder: 0
  minAisleLength: 3
  maxAisleLenght: 5
  allowCustomZoneAisleLength: 1
