%YAML 1.1
%TAG !u! tag:unity3d.com,2011:
--- !u!114 &11400000
MonoBehaviour:
  m_ObjectHideFlags: 0
  m_CorrespondingSourceObject: {fileID: 0}
  m_PrefabInstance: {fileID: 0}
  m_PrefabAsset: {fileID: 0}
  m_GameObject: {fileID: 0}
  m_Enabled: 1
  m_EditorHideFlags: 0
  m_Script: {fileID: 11500000, guid: ee9f71ed89ff9a647aa56c21316ef0b0, type: 3}
  m_Name: ExteriorFruitVegAisle
  m_EditorClassIdentifier: 
  itemDisplays:
  - {fileID: 8590469657466847571, guid: 598e1a4d31b1c4347a6cca96b468193f, type: 3}
